28 31
    ############################
    #o...........##...........o#
    #.####.#####.##.#####.####.#
    #.#00#.#000#.##.#000#.#00#.#
    #.####.#####.##.#####.####.#
    #.........U................#
    #.####.##.########.##.####.#
    #.####.##.########.##.####.#
    #......##....##....##......#
    ######.#####.##.#####.######
    00000#.#####.##.#####.#00000
    00000#.##..........##.#00000
    00000#.##.########.##.#00000
    ######.##.#000000#.##.######
T419L.........#000000#.........T392R
    ######.##.#000000#.##.######
    00000#.##.########.##.#00000
    00000#.##....P.....##.#00000
    00000#.##.########.##.#00000
    ######.##.########.##.######
    #............##............#
    #.####.#####.##.#####.####.#
    #.####.#####.##.#####.####.#
    #...##.......##.......##...#
    ###.##.##.########.##.##.###
    ###.##.##.########.##.##.###
    #......##....##....##......#
    #.##########.##.##########.#
    #.##########.##.##########.#
    #o........................o#
    ############################
